{
  "Description": "Spin up an environment for running the Spark Log Analyzer",
  "Parameters": {
    "KeyPair": {
      "Description": "The EC2 Key Pair to allow SSH access to the instance",
      "Type": "AWS::EC2::KeyPair::KeyName",
      "Default": "ansible-deployment"
    },
    "Ec2InstanceType": {
      "Description": "The type of instance to use",
      "Type": "String",
      "Default": "t2.micro"
    }
  },
  "Resources": {
    "LogAnalyzerBucket": {
      "Type": "AWS::S3::Bucket",
      "Properties": {
        "BucketName": "log-file-input"
      }
    },
    "MugVpc": {
      "Type": "AWS::EC2::VPC",
      "Properties": {
        "CidrBlock": "10.10.0.0/16",
        "Tags": [
          {
            "Key": "Name",
            "Value": "test"
          }
        ]
      }
    },
    "Subnet0": {
      "Type": "AWS::EC2::Subnet",
      "Properties": {
        "CidrBlock": "10.10.0.0/24",
        "VpcId": {
          "Ref": "MugVpc"
        }
      }
    },
    "Subnet1": {
      "Type": "AWS::EC2::Subnet",
      "Properties": {
        "CidrBlock": "10.10.1.0/24",
        "VpcId": {
          "Ref": "MugVpc"
        }
      }
    },
    "Subnet2": {
      "Type": "AWS::EC2::Subnet",
      "Properties": {
        "CidrBlock": "10.10.2.0/24",
        "VpcId": {
          "Ref": "MugVpc"
        }
      }
    },
    "InternetGateway": {
      "Type": "AWS::EC2::InternetGateway",
      "Properties": { }
    },
    "GatewayToInternet": {
      "Type": "AWS::EC2::VPCGatewayAttachment",
      "Properties": {
        "VpcId": {
          "Ref": "MugVpc"
        },
        "InternetGatewayId": {
          "Ref": "InternetGateway"
        }
      }
    },
    "PublicRouteTable": {
      "DependsOn": [
        "MugVpc"
      ],
      "Type": "AWS::EC2::RouteTable",
      "Properties": {
        "VpcId": {
          "Ref": "MugVpc"
        }
      }
    },
    "PublicRoute": {
      "DependsOn": [
        "PublicRouteTable",
        "InternetGateway"
      ],
      "Type": "AWS::EC2::Route",
      "Properties": {
        "RouteTableId": {
          "Ref": "PublicRouteTable"
        },
        "DestinationCidrBlock": "0.0.0.0/0",
        "GatewayId": {
          "Ref": "InternetGateway"
        }
      }
    },
    "PublicSubnetRouteTableAssociation0": {
      "DependsOn": [
        "Subnet0",
        "PublicRouteTable"
      ],
      "Type": "AWS::EC2::SubnetRouteTableAssociation",
      "Properties": {
        "SubnetId": {
          "Ref": "Subnet0"
        },
        "RouteTableId": {
          "Ref": "PublicRouteTable"
        }
      }
    },
    "PublicSubnetRouteTableAssociation1": {
      "DependsOn": [
        "Subnet1",
        "PublicRouteTable"
      ],
      "Type": "AWS::EC2::SubnetRouteTableAssociation",
      "Properties": {
        "SubnetId": {
          "Ref": "Subnet1"
        },
        "RouteTableId": {
          "Ref": "PublicRouteTable"
        }
      }
    },
    "PublicSubnetRouteTableAssociation2": {
      "DependsOn": [
        "Subnet2",
        "PublicRouteTable"
      ],
      "Type": "AWS::EC2::SubnetRouteTableAssociation",
      "Properties": {
        "SubnetId": {
          "Ref": "Subnet2"
        },
        "RouteTableId": {
          "Ref": "PublicRouteTable"
        }
      }
    },
    "MugSg": {
      "Type" : "AWS::EC2::SecurityGroup",
      "Properties" : {
        "GroupName" : "headquarters",
        "GroupDescription" : "Allow access from my home IP.",
        "SecurityGroupIngress" : [
          {
            "IpProtocol": "tcp",
            "FromPort": "22",
            "ToPort": "22",
            "CidrIp": "73.141.248.235/32"
          },
          {
            "IpProtocol": "tcp",
            "FromPort": "22",
            "ToPort": "22",
            "CidrIp": "98.225.209.155/32"
          }
        ],
        "VpcId": {
          "Ref": "MugVpc"
        }
      }
    },
    "MugSgFreeInterchange" : {
       "DependsOn" : "MugSg",
       "Type" : "AWS::EC2::SecurityGroupIngress",
       "Properties" : {
           "GroupId" : { "Ref" : "MugSg" },
           "IpProtocol" : "-1",
           "ToPort" : "-1",
           "FromPort" : "-1",
           "SourceSecurityGroupId" : { "Ref" : "MugSg" }
       }
    },
    "SparkInstance": {
      "Type": "AWS::EC2::Instance",
      "Properties": {
        "KeyName": {
            "Ref": "KeyPair"
        },
        "ImageId": "ami-916f59f4",
        "InstanceType": {
            "Ref": "Ec2InstanceType"
        },
        "NetworkInterfaces": [
          {
            "SubnetId": {
              "Ref": "Subnet0"
            },
            "DeviceIndex": "0",
            "AssociatePublicIpAddress": "true",
            "GroupSet": [
                {
                    "Ref": "MugSg"
                }
            ]
          }
        ],
        "Tags": [
          {
            "Key": "Service",
            "Value": "spark"
          }
        ]
      }
    }
  },
  "Outputs": {
    "SparkInstance": {
      "Description": "The InstanceId of new spark instance",
      "Value": {
          "Ref": "SparkInstance"
      }
    }
  },
  "AWSTemplateFormatVersion": "2010-09-09"
}
